1141322134414033344313240413422443134044313131444
3232421313031311111112122134233131034343314030324
1132403132132121112114141403224040204022301020403
3041404041311301101104031313343331113133312200444
2131401142323143213321321211211434133323414223312
3323321142041411101003321212243233113013403131431
1313140404414033332312332423122232013223304141334
2222211144144410100014130413403434042222204230344
0202320231324043443431312231224033224404040430333
0404040404414044443421023431114044404221214041444
0214000404230122112411003232402140414243404240433
3131404141131321111114141413342321113224114130324
2322121212414134334312213323121331131213412022333
2222311343323230213034140304433131404143213330424
2222212233234311442122412320123043403233404040444
3011420144424133233424133213231413132121243231413
1423331433403422331114142413442342034233213133333
3031313230314021111104130404343030102134333030423
2022313411313142331113040303433243211344412034444
3112321321323331111103132313332331023311313121333
2232200424104044434312440413311334040212222213224
3140403342041410000144031204133242222323124000214
1402140304230310103424120202221423243222122022221
3233111223423243443134033304333144311123204040414
1131312333131311331123232113233231214142013120231
1413141313131331101120414040112230304030303040413
2323232304413244424042244440434430134133403040444
1022210404434404334313040204323140114122304031334
0314000404414143333441414041104040404144123221313
0313111414414321112401022412123144303233404040444
1313301224414043424404230402213232223133314121444
0034400400314013344414140204422341212042212131423
2233212243324133303314331213333433133312313031334
0223211413414143444303340402422143134043203040423
1222120314313034233301333412113433123113324040332
0404200404041014004424040404444042304044104120404
3144404230044003000004040404444020404034404044444
1211311213313133333402232401410233012102113030433
3141314131312300300103030413443141313044401130444
3030314140031311331014132313332232012332313140333
3041404141011130043024124330134040204244021321303
0113110133314013332332231222121132223212303021423
3040404141041410000004041204444040404044414130444
4040404241301144444014241414441423034312413030344
2040404241404444444442430314443444404143233040412
0404021414414311114104041403343040403024403040244
1314131314133013101403031313223231213132313221314
3141414041413033333304240314333323031133404040442
0103404140404423444441302030402444040402444240414
0010002204314043443401030423414034444422423220233
2331211123334133332314241313421333232212403031334
2142411121123313132113021213322331243232224131314
3331313213314134131314333313131334141202303140344
4141314140044400101004040404443231300030404040402
4040401040404044444434440322424021031444433131423
0044400300424034144404140404444442044442334120443
1402231413234113114002031303321133121213313131333
0313312314313113333113041312331420132012213321220
3313104143314214334313332313141404030403313241333
2322321114344144334403340314423211141212204140401
1122111314323223210103031423322231214123304130434
2132313422424323333304041403332142212124224221433
0313221313313133333321113131122433243211414131444
0232223302142301101113032213443211010300403010334
0111314131314223111104040404440043304034404130444
2141432133141311100014130313332241233132121333124
4144220444223400100104030404440432040401404011134
1314221214314033333312131313311331313333323131333
2042404430323413001004040414443130404043304030404
1412313432404410111313141313321313132103112231333
2041402313130301002134040404443431142113103240324
3141304231324033344403141213234242314024314120324
0104000404404022410403041413331040410023324041323
0424231303021201000103040304323030101034403011444
2444231414344044444414140403323340022144304040444
2404141414414123334303140413422144013034403130423
2242422332133310300124331213123133040011113321221
2222221214304033444414331412222322232022404030444
0424040404344011001103040302442130403221333322423
0104000404414043444323240414422032014204304140414
0003000404243211111101042424444140404044404143423
3141412323040400100114311111223230312413413030444
0414041404044400000042100430311413041212433030122
4041404140141400000034003031144040104244104040324
3041413130214110442313232304433444444244403040444
0424040404323034314421113132213333033132421233224
0404040404414134333313141413321232313123213011314
1233131313341033103413131213322142414143404231344
2141312142314434333334441311333444032444404040444
3131314130324013333114341312421433241311414141443
3130403140041401111104142303341441001302303130334
2122321223341303433104332313323331132313321321113
3044434234133322010204130402422342042222224040224
1323130314404034444403431403442333040113443030132
1131113331434034444403130413332222123122224020223
2143233343041300110103031403443030404033104031301
0304040404414044044441413442442443004244433440424
1404130414414044443313241313323132111233434041333
1424333234444124444403030404312233313132113230331
3031413110212031104303242313232232013331313131344
0403110413213131332313032322322233223222303011313
3030403141031301001004140003443040414033404040444
3040404010423101334334123212411310343012322034323
3141423131233111111102131312231112033301343131334
1340311331232422442004304434041444142124404040404
4140404220132321111134230014042340433144241223111
0313110333133211001013132322133241313023313121424
1334431314404024444414241404424322222223414040444
0404030424404013444443322121223331114133313241424
0423030424314123333331303333122142413043041340413
0104330244424033323304030413433012014123113121213
3040404441113132111104141404343041414233304130334
2424342404414341413202340432213231232144203334344
3131303041041311111104041304444041203144404040434
2121114144323133333103141413331321133302213130324
1113111403404033433214130314433432343443033210102
1141404232232222211104230404342334131113304040434
1311332233314113313314131222331323232221213121223
1140314131333111123104041403431411040220003030334
1101000404232321111104040404434320232122314130334
3012404341314043344413131112203331143321304130044
2032304141430003341013141414433441123133413130333
3111313113414044444431340400433444214044304040424
0131210304432110030304040403443131304143304040443
1333233312131311111122202113123221122233424020431
2223233413313103444313232312313232322233414021334
1040413141232220301014030404444130212022203140404
2141314231223312002004040304343040413142220122403
2222311134324044333304040404440443041344403044404
3121313112132113212304331314433434143401144223204
0414240403414034334331414121121313131212333131333
3142404201233210000004040404342041303044404040424
1323231313233311444113131213322132113233312231334
1212111414313033333403140413333140413034304040423
2141414131333313333013131314323133334231224031312
1134312444414244333331314341124040404234404041444
3041404011333122331003241414444120414144414040443
3123110232243311111113121213121312132223333130411
4040403141133200101014222204443343130302404040344
0404130434414143443322222222224133234232414131433
1234443404222323113322131221123132013321313032214
2132403141323333323122214131113132122321303030433
1130100044403104444403141413433104014142404040404
1233323121232311111111132121132231304023404330434
1314131433413123333313241313322343133221313121323
0334333434243041004003120403232231233232313122333
0414141404131400001002031322123131212113333120332
3242304234444433333324234041340233042401104040423
0403310404311300000142000042443040404043423241433
3140213131030311102124122111401412041411404040444
2222424222044440003004001400444040404044414040441
1031301132133331111112233111221331222223214230342
0314030404314133443431313232213132223122414430443
1132310322133013100104041213433231313132314130334
1404040304204044444404340404423444242144304040434
0404020403414113443421122222212312034221113121333
2141334134141300100013131313341011102102124231312
2141212141044100433104331213324322233313304030434
3142304032042400000004140204443030304201412332203
3214210404343033333404040403341424041012344430132
0404040204133211201102042404443131212212403031234
3140404141031410000004040404444331134021404030234
2112210404424144433413140413434141244423404040323
4040404344404324441404440413422332133233324130313
2233131133133311111104141413433431133033404030433
2022301112333111112003240314423240233233214131444
0404140404414034444441404441111104041411303034434
2122222333333331332114131313321333333211313232334
3040404040142420000014142404424042402223414140434
2131314232242321111134340411400432042003314143413
2141411121031203333332130404322331133343333230212
0313121214414044434312331313432124213122120144223
1434041314134030303121132223322332121112204040142
2141412313032100000014041203422130303030404040434
0403140404314044443421314311323244343233434010334
3040404040021411103103131313333040304034433331132
2424040404044242142023041423424040104044304121303
0004000004424044242200003404433441314143403020431
3030303131130401100004131113333140103133403040431
2223211114414144223414121323322424043411203030320
0313030304414033321303141312331213040131113111323
2213121133313311113312322323133032213132323122330
2403230204041211000004030404443430234133301023444
1313131214324023313303040313322122213123213221312
0404040404404034004423143224222030113022404121443
2144233244424024334343331300323440113214204021204
2033404403424344003104140404434041204132404020224
3041304140040200000004040404443130303033412031434
3140404444043400004001042404444040304043404040344
1333200414233322222111322133111331311222404040334
0222010404033200001004143034444140201204232044444
0140404414044003444404040403444041304043403040434
0213201404314003443431014330001030301214304040424
0404040404444004444440004030221224222401102000332
2232201414404044444303040313340444041403404030434
4030424014413124212304041403441423141143404021313
2341232312233131222213331313423121113133313030334
1132323232324004444434233002111314121122434440432
0042420432043400000003041404442341414044404030434
3040404140143410000003041304441141314143414241304
1212120313434034433403140403432212032322314020244
2140413141243303444043303122130304144142044303041
2131212114404133434312121313114141123122223131233
0334230404434233113321214031130431142201304031334
0323220404221303213424331413333140404024404121434
4030404040404424004422221413424330303234403130440
0312031204324003434424140414341434044210314040304
1404030304144220004022132433123030001201313130433
3223403413244122442114040303322334043222434340423
3142414440141310430004040404434144000022120421214
3212313312324123233312022342113011303231212121322
1040404201042401002004042004443040404034404030344
3140414042313440003004040404442444144243404040444
2433130424343400010002041403131133000401404020344
1423231414433122322412231313323331133233314120334
0214140204424034334431140431421412132212334020123
3042313242414341114104040403444444243000314030124
3041412213041400000004041404343040404044404040444
1222321334233331222123122122120132120304133313303
2223132313414144443313231313433031333131313433131
0413130414313212334311110331331131303133333322324
3041403241213111222104040404432141223212304030434
0403130404404044444431103032122234123213334020331
0204140404404024444422431410043344042414404040444
2142404132040300000044210204204321002022304240444
2121414441043231110104040404443043404044404040413
0014103414223033333304240412430403033131224020320
0412120414233121113113131112321232123232113221324
2131412123141131331004031313333131213132313121333
3143412230444004000004040404432443404044304040444
1211020334133131422132212222133232123110304040444
2111203143301333223012031403333241211443414031444
0313201143424033213303030414443131232033121131314
3030403140313310312012222413232341122213314141424
2130214144314033333303331313333144313333313141333
4230404404404024332414040404443130303002414142413
0423021304143123111304123422431413033321113311221
0333302214414033444333332212313211123313404030433
3040413131042410110003131312341422132230334014311
2141412142414123442313231313413312133333120340203
0122110134414134223233331113304143114134404030423
2212200424134044444422223232222333143142121224311
3040404131143320101103041404440340401044404040434
0040404040021300110040002222434130314034442231334
3032303132404034244403240402430432123311304133343
0404400444424034004401332240424343043014404030424
1333311233304134324301341333232122212221213132323
2233000424404024444404041403422222232112122132213
1321204341040334444034431144332444243202404440344
1322212133414044423414222412123344020124413231434
2141404041042400100004131403333331103034304030314
2122313411423343443113040414443132414042403040344
0112411133323133231123310112333333132012303131434
1010401013114033423303331313232131123323313140443
3030303031314010121304040404442040404243303030433
2214042404314143433332124330122230203234104022404
3141314140424123333423241201322140004004403041433
1414131404304043444413231413412414042312323430334
1414031414413034334341043323343140114134314031323
3243403130110000434014031413233341222243123223311
0414342304204013434443312223120114013311322031233
0011100111433114331303030303431242113223413330333
2131203241131311100014031413342330113024204030324
0404141404234221242413032404423133022023303030443
3141414041141410000003041212443141303034403030444
3040404140412033323314040204443040032033313131413
0123213313423411222204040403432212032221223040421
3133233132221311411113432113333342113332403131234
0424040404404444434404040313320424042201423131213
0231311131312223234202030404434040414444404040443
4023213141414143443414240311401444032302204130214
1313111414334013333303031413433141213143314121333
2122323232112331331113241312322322132211122122314
3131313433231331332313140304433121212232131312332
1413230404404033444401240434412344040222314130234
2041404141323221333104031302342222232213404030434
0124340404123013333314041404224344004022140412113
2321311413041431002003041313323041211133414130333
1432320312133321322203040413434340112033404040424
1123211413133210000304040303334220123232221323114
2233330234404043344313231323321211121122404240223
2204343221414123334313331323322141213132303121433
0404020404404122222404131423220040004043302031313
3132423341214434442413431413442433041402304130113
0214110404414143333414331333422040202044303122423
4041404040412100000004030304443334040213404130443
0424040404404444444441404041111444042313304040333
4322144400131321101013331313343341123043212233324
1111112241213003444103431424313034414034344430304
2141404044443233333004040403443020204124114040413
1321300143404444422414332314330332014103214240334
3040304040002311000003040413443041313043404040444
3141313123142331101003231212232321222112314140432
0404040404404143333403040314341424034133334131414
1412130324414044441404241414421214133313414120433
3031313131402400400013333404442443413004304040434
2040301343424323444033442413242341313344404130333
0404040404404034144413012223321114122224302021333
4041404040031400001004030404443040204044214230404
0304040404414044444442043440412444042213404020430
1233231333434401004440134313322240424033404030333
3031313130323111330103041313333330014002324431434
1202111413213133311304040413433441044143313140434
3240403141233113212114131314321333133113424240432
3031413130023111101014041414434331104034314040334
2040204041131401440113440404042442032301024220142
0414140314133313113123032223133333132123314030324
2111201223443342243133323231312332223222124230344
1042411311334123440303341202432242023212404040434
2041432242042421111014141313333231113234313131334
2242232414230300004004040404444241144144133220324
2434221144434444444404243411222432143213303030334
1424121314334343333311322323322332242122313221434
2314230104414034344421131113223333133211323231224
2031404031031311202014431314342241241143404040442
3031314131322131211104141313333321131131303030114
0224404403024410000000030202342040302242243231434
1112410313134323243103031413423331143313414130323
0222120114343023312303141342430443143322414040440
1223233312213111111304131413333041133133424220304
0114040404444401114431040202442434040401404040442
2044431404223123223203340402423142224232212201314
3231303141132441401004240304344041304044204240404
0212010404413123332313040414411312112231110122323
0022010404413124004304140414432324044242404120423
2021313331131113332303031313323433143333312113222
0213110133314133333432141432212143314343303140433
1233200313414033214304231402403122114333303040433
3040404141142400000003441314443340000001213230213
3214213140031300333002131402411232223312303040432
4041404041014034044303442404443040414044410134343
2040404121130211100104040303334241304122312140204
0404140404002000000003031222224142213212302130333
1432221244314033333412130232222011112012333131333
1313140404233311111103131324123444331221234302211
1122111224233322322304031413231222112212214130304
0414340303032003331430104041100040404004141040401
2041403140131401001103131313332331123232213130324
1131312413414033332304141413322333130103413130334
2111211404423013133104041213333120312022213030324
0404141404204443443422423232122413012232423130443
0304040404133421112104040404430223042122304030414
1412000423433241444430413031222233223144404243442
3021403311331111002004130404344141214043404040433
0234010404414024223421110334123232313343304040443
3331403312041311101021103202231131202022202040422
2222233313123223232313031313321331123213304031333
2141313131141300101004040404444140213044404040444
3311302443041300001004030314333441133133404141444
1133111304133221111122031122233031204443414140444
0312431202124444344324311113120323022123314030332
3143413321414033331303141213433131333033403040443
3141403341322020000303031403331422042421334140434
3131303132133321111314240403331232121111102040333
2041404020424334334304040403442432143112333041303
1404330423414422330114040403443131222113423040434
1122311323011401100022132311333131001233344030314
0403040404413123314421131413331244034122223321222
2214120404324311311313130313331331313132433043333
3121404141041100100113040304444044402044302444443
3243314401144312000204040304444244414042214140424
0424240404242443403012143413031301334223324240314
2031304231131211101112031313232131202132304130334
4040414143133311301013231213334340104043404240433
4040404040122310113203140202323122313323421310212
0204120404304334114121113242403423034004444044444
0020400031404142434323140444344030443234312334423
2131303141232223221104031303431332133113304330433
0042404140423100003423240204443133032234413031444
0404030304412221111103040212343010303034303341323
2042204141131201110121113212343141133233403031333
1423130314314404004013032222322240243113322231124
1121312211313132333303231313321224223133222322432
4141404341432003334303031202043042214044314140433
3041404232133011001004140404334240022022212240424
0042404321323342110104040400342440404124404040443
2112323234223301302113342223322221222212404434433
2042402212141120333433422212223442322332403031444
0313134420414032334303030303322132313143321311313
0404030414414112332113133212313222121213223131434
0404130414404014444433312121123131113333402041343
0232110403404222433424124441314041304144304040434
4041414030133210001003040102440444242412404030424
2141404231042400000004041204444040204044334424333
2404030234223213113213141414323131113133301011333
1133011324404143443431332323132214113301113123113
3141414131142201101004030203344331203024303040434
2333413413141411100114140313432330332133411010444
2041403121141211103013331103131231213233404030313
3031413131344310110004331101131332141323404030434
0143414204404001000004140134444041414044414040434
2031402311113311113304040314433432113333332311333
0423041432313023333203044311111423142221222221114
3040404240404034444304231402332143313133134140323
4142414121131301111014121212424320304044404040444
3133413143233111111104141303433041303044303221434
1121313311214334112313131313332312323233404130334
3232122331433332333104140314442040401243403040433
3141304131232301111004040404433141113034033331403
3111414130424044444403440404433343444144434443444
0224401314434014404304040404443142303133204141324
0000100000404201121144040434414040304040303021323
0313110313113411001023031313132232113123313021423
0214140404414034443413030403331114041401344434334
4040414341040300002004040404444120244044304040443
1311111313131100101030212112131341231234402230344
1312200334313301332104140404432441002022314231424
3031413040444034434404030404434443242401404040433
2333231223313113003314140402433240213123413121444
2204130434313113333333131313311432040211134330313
3041403131040201001013302131333331024002404240444
0404040404044000034441114441114202000402333044443
0010400401312000000300041401432040404134404040323
1313030314313131112331122121323224333233404111144
3131114131213133333314141313332412031212314130314
2232212333012400000002031002103040204043204030404
3333403313131111111113231313331333133232314121324
3032314022132321111104130402440231122123222233223
3021323111132123111203040404423324141302203140414
2211111303133222212113031313423433131133212230313
0413140404134111111130142143214244314024304040344
3041324341141400000003031313343040113040213030212
0143230314343414444404030403333140403033404030424
2133113133023310101313122313231232132402434141332
0214211404424044433422321422231414132414204040404
1213113222233311431132133333331202031311334022234
1313111413313133423331140423331234242221424031324
1313130304233031113411141423332434004330314140334
1112114143333123113104140403433331313144303230231
1223221313313134333404240404442041132233204020433
4041404240143310101004040404432131223142324231334
1224221314133311111013132312223121333233331333434
0342403313313123333313141413342241212133413031333
2131312141414033343313321113224222323344411144344
2224231313414033333444033243213413222222113030344
0224211304044440330402040432440401044442444240044
3141301131041301000004040414443040304044414130444
2341322312142322111103140414343233123133223010224
1140400044424344243424231414441443044444413440433
1212212313413143333203341412334113314034104340313
1312110212131111111114031313332231112233314121333
0304131304404143444302030404222123221213113132303
3222413133411300434014430414242404040413304040444
1012003141404044333223330423200342124421312032114
0224120403233133333412031403313134042312313020333
3040300140344004444414040404440404041411413041333
2041203142243113333414040404341131212032202031403
0412220314223111212213142112230204040301404040344
2041404111143211100103021301343330113133303131431
0304030404414134442313132313311132022231312011313
1323131313041410110101041303333240303043324130224
2041311120041301112004240304442431243244144224204
3041413141304013442313131313331232142213404040443
0314130311414114443311020331312141232124414131342
0414340204314133323412222422211313044401133324024
1333302244344443114314331413332030112123323220312
2214230424123430000003041403443142203044214301304
4240404244244400440003040204424132414022122230202
2222400022130221111114024231324340404012004331433
0022200314403442444432333131314433043404404030444
2040403211032210100004130403333241234123413140434
0022300224403143344303140403441243020212413230422
0313231414314133313303031312313423132133413131332
1113130314134311322122132222232323033312314130222
4140404311133321112102321222022243033033224030224
3232011204324043444401040432412120414124304042333
3040404140213124342404040404344041313043413140423
1331313213134223112303031413322222322233213131422
3241314323121333432213042414333040303033404040443
2041404041040311100003040104444130313134411034442
1022111304044421112004040403442240222123404030343
1041404231231342442114240414442432234232412134444
0423221314414134333301133413313143343233424143443
0314230404313133333314140304400324141401004430014
2040404130124232333114230304232131223232033231402
3131304022044410030403040403440432043302343331332
1011210404404044243434420433422341203044304240324
2041313133233400000004240404433241114143204020404
2132414131413024332314140404443322233123314040444
0413130314413134444401041404430414040004304020444
2334311133314033333304241314321414031112234121223
1404040404004404043441044444243432144203404433444
2040404141131311111104031313332241143033314331323
3113300113313133223201331423432222222233212221332
4140404140143331003004141313333422033341112123314
2131313322233014444403231113331212023013420434133
4041414041434323210104040404433333032141404140444
0414100404024130004044140403444040404044404040401
4223414043323433331104040304440413031411111032412
3040404041112332213014331413334140414043404040323
2140404044331322443414441413213311011223211140402
1132301312133113332314122413123131113033404031333
0413341214324034333301040313431440304134414242404
2042404332231301331004040204443141304044303011403
2133202223222313103114040303442141204133213121313
3140403042413100442404022404443440404004404040444
1434030302404044444404240414441444142203404030434
1132220234030411102112131113211331213222314030334
0114344404414333113320331214302044304042303211124
3031403131113111111103130214331131031121303130313
3010304040423013333303040403430300303041112312411
1413331444133310103044223130143040013321414040444
2131404233232212112104140403341340133234203121423
0424030304404013444443332222120103043311122324123
3131313231140000101313322311233334211232404130334
0404400404424300440004040404441442344123404040433
2141404143140400000013232213121333123111223221313
2123113413333123333313231313113232121222304120331
3030303141132421110014042211341030004203131230302
2123211313313221113103031313332133132134224141444
2141413342231340240013031303333132213122114121304
2242313142134344211312231212222121323210311033434
1112311313134101300101010422223131414133313131433
4040413141131400001014142203434041012322313041243
1030304130434142212104140304443231314033313120333
0404030444303134003013131314421131021213404031333
0313200313224134124334130230332041202122304030233
1214230414443144343421313123330313043303222130333
3142311142323420110104040404443040404044404040444
1031404333232311301003031204322130113133233311233
1224320314334431113312031213231333122311214220304
0214130403314133333301331432322313132221334123331
1021214043324034334404040403431433122402404030434
0424040404444043443431422242212322142222334230233
1133414141030411101124112231234140314022303331112
1131310414224333211203040423414132214234104020304
1314131414404044444403331222322342033213313141430
0324040414404034444401040413432412032113314140444
3040404130234301004004240404444441133133204230432
1140202403414043223134430404440443032013314040124
0424020314404034444323330443411013241413343430023
2142422322133321111114221413332341233034303221431
0343401110040310001033140313342041313223314130343
3242313431233022212203030314333232314134142233444
3132313312113310001103031403322241022312423132424
2131312322324043333404040403422222314042213141214
1330301343312010111223041313433430013033413131423
3031304242412222112314041321343140403113413141433
2142313134042400000003040404443440422144404040444
1213120304404044443432112431410142044433304040404
0414020404404144444441314121121423243213333322324
2132201223133211110004040404442330233123303331322
2223211204414431114103130314443434143333234033302
0214240414444034114423322422320404042401304031344
1042304124222323122314331202332342112324313240433
1142204311404334423104141414423322030002303130134
4040404040404040011003040403434021404024304040344
2132111444131311101133321111224330002004304030444
1213140414133310111111111124313212333333303020404
2141403312133211111003031413433130213132404030434
2313331131314112133314130313311232341123414021334
3132203132243433212002031321221413211213114230332
2042404420413323334414341404324040414044313141414
1142301332040000440404041404440440344024344010233
4030403140403242212004240404440040144002304240433
2333304233314133443313231313322234122123404040434
3121313112312330101033321311133442031010224131412
0010101133333113333332222132101333131303102020014
1142313133222121212234323431211343212022304040304
3141314131041310000104140304444142304044322122424
0404040404313321113213022221301133312123303031403
1214131314313033214313232222313232122132114121333
2232414240343000000003231414343444123214403011430
2021304041413134212103130313443231213133413030333
3212210414414143434204040403321133214234204141324
0423240424404044444411440440322424042410404044440
3041413140031310000113331213332140314023413131323
0414141414314030313304040402443443040300103030402
2233403243040400000004030304443130242133403040333
2032330232424004424404040403443131203232313022434
1314130414013000001014041313443130200033304030334
2141202243113013424304240313343332232232323221414
3133310304040300001044040004332131313144404020333
3242324234324030000404041413443020122424404040344
1313132324223123333303041413321213313321313121333
0423320313143131301313031313431323113122223212213
3030404201041400000014141404444233333113403030433
2031412311131321112134121411301320343043302220124
0404130404424043444422042432111132013123404320434
1133322322414333444101342413402434340003314040434
3042403402043121111104040404440342124334314120331
1212311324314044313302040313434140213143413130434
3021204242414004334314313013002424044420404040444
1313131414404122444212142422222334030313422231344
2403331234414013334333333303322233140214404012430
1403130414404044444402240401212332132213404040434
2132403141324133443314140403441341444042312234333
2040313121133211212104140404223331234112314140313
3031304131131311111104030404443040404044304030424
2131312211233331111104041303331131213122303031334
0242200404032130042312041403220110313040301030303
3323303223314133333303041314442120213133303131333
1031404311131331103043332113334041413024404130334
0313240404303222044342143413132443033232243230111
4142412311424043443304241404422342133344403030334
0424021314234122222131312323123243143220334021344
0333104324403124344403030403332221113212303120443
2332332432243300100113121313211131300033313031344
3314100134331101331113132111223431224232312132331
1121202133213311113133131313343113233123223331333
0113400132313133434303030404441322112213323332123
0424241304334143214431114122122214044303234240411
1434311414304133213312042413410023312012313032423
1314131314314113223311122113211313131321313241344
1114141402040301110013312221323242314043314240334
1223231333214133423313331322120442143303113230324
3131412341141301102004131413434221114034404040424
0112323231313321213113132312321333132112223321324
3041412343140010430004330402443432213143424140442
1113111313314133333302121213413312333143414140444
3040304141040411001004041314434040413044210240224
0312211314414032111113131423331332112113322131114
3040313441424420111004040404433040304143414130424
4242424341243401000044104043334341044214414020333
2241313132032410000003030304343232112132202022333
1021304001032313111124042404440402041122414240444
3141412230014004334313321212321142212032222232312
0203140304404044444441413440110404040401004040404
1404140044234111444421213041123444043300204020444
1223333432434134223321432324223332232233404133332
1111303322434032333304130403333132332121323141214
0223314424042410000004040404444040304044440440204
0214040404414032214431110430213043001240204030444
3042304024414044443311341404444123404023212302014
0142113231140411100000130013331240223132124430133
3141413112142431111004040404443420131143231040404
2130404241041410100034011302143131203033311043344
1404141404404033213402022422423141114334404140443
0222320314033130331403140403443131233222303031334
2443331424343213000003040303431211041112134243212
0204040444404004444401304444412044044401404020433
0434040404042310100121114131120002003202333022122
1404040404134001000313041313330432013032123112334
1022424411424440100024040404442432031323414040444
0304131313313113123304130423333331233132113130323
3111112234131331111313131413331331113123333120133
1131303131424123242303140413431212133233214133401
2142414143134143223414331403423343144341113120201
4040404141032211111104140404443040224144404040444
3122321213323223111131320132232323232133414030444
